<svg width="20" height="20" viewBox="0 0 20 20" fill="none" xmlns="http://www.w3.org/2000/svg">
    <path d="M17.8313 5.95625L7.83128 15.9562C7.74339 16.044 7.62425 16.0933 7.50003 16.0933C7.37581 16.0933 7.25667 16.044 7.16878 15.9562L2.79378 11.5812C2.71098 11.4924 2.6659 11.3749 2.66804 11.2534C2.67018 11.132 2.71938 11.0161 2.80526 10.9302C2.89115 10.8443 3.00701 10.7952 3.12845 10.793C3.24989 10.7909 3.36742 10.8359 3.45628 10.9187L7.50003 14.9617L17.1688 5.29375C17.2576 5.21095 17.3752 5.16587 17.4966 5.16801C17.618 5.17015 17.7339 5.21935 17.8198 5.30523C17.9057 5.39112 17.9549 5.50698 17.957 5.62842C17.9592 5.74986 17.9141 5.86739 17.8313 5.95625Z" fill="white"/>
</svg>
